…
precip_df = 
    bind_rows(precip_2017, precip_2018)

precip_df =
    left_join(precip_df, month_df, by = "month")

precip_df %>% select(year, month = month_name,total)
```

    ## # A tibble: 24 x 3
    ##     year month     total
    ##    <dbl> <chr>     <dbl>
    ##  1  2017 January    2.34
    ##  2  2017 February   1.46
    ##  3  2017 March      3.57
    ##  4  2017 April      3.99
    ##  5  2017 May        5.64
    ##  6  2017 June       1.4 
    ##  7  2017 July       7.09
    ##  8  2017 August     4.44
    ##  9  2017 September  1.95
    ## 10  2017 October    0   
    ## # … with 14 more rows
…
